docs/traces/buster-07/z2-multi-read-multi-write.vcd
$version stp-to-vcd-exporter.py 1.0 $end
$timescale 1 ns $end
$var reg 1 ! CPUCLK $end
$var reg 1 " CLK90 $end
$var reg 1 # C7M $end
$var reg 1 $ CDAC_n $end
$var reg 1 % RW_n $end
$var reg 1 & READ $end
$var reg 1 ' D2P_n $end
$var reg 2 ( SIZ[1..0] $end
$var reg 3 ) MS[2..0] $end
$var reg 4 * A[3..0] $end
$var reg 3 + EA[3..1] $end
$var reg 1 , ADDRZ3_n $end
$var reg 1 - MEMZ2_n $end
$var reg 1 . IOZ2_n $end
$var reg 1 / AS_n $end
$var reg 1 0 DS_n $end
$var reg 1 1 FCS_n $end
$var reg 1 2 CCS_n $end
$var reg 3 3 ABOE_n[2..0] $end
$var reg 1 4 DOE $end
$var reg 2 5 DBOE_n[1..0] $end
$var reg 4 6 EDS_n[3..0] $end
$var reg 1 7 DTACK_n $end
$var reg 2 8 DSACK_n[1..0] $end
$var reg 1 9 DBLT $end
$var reg 1 : RESET_n $end
$var reg 1 ; STERM_n $end
$var reg 1 < SBR_n $end
$var reg 1 = SBG_n $end
$var reg 1 > BR_n $end
$var reg 1 ? BG_n $end
$var reg 1 @ BGACK_n $end
$var reg 1 A BERR_n $end
$var reg 1 B BIGZ_n $end
$var reg 1 C BINT_n $end
$var reg 1 D CBREQ_n $end
$var reg 1 E CBACK_n $end
$var reg 1 F CIIN_n $end
$var reg 1 G CINH_n $end
$var reg 1 H DB16_n $end
$var reg 1 I EBCLR_n $end
$var reg 1 J EBGACK_n $end
$var reg 1 K OWN_n $end
$var reg 1 L RMC_n $end
$var reg 1 M WAIT_n $end
$enddefinitions $end
#0
0!
1"
1#
0$
0%
0&
1'
b01 (
b001 )
b0001 *
b000 +
1,
1-
1.
0/
00
01
12
b100 3
04
b11 5
b1111 6
17
b11 8
09
1:
1;
1<
1=
1>
1?
1@
1A
1B
1C
1D
1E
0F
1G
1H
1I
1J
1K
1L
1M
#10
0"
#15
02
#20
1!
#25
1$
0.
#30
1"
#35
b01 5
#40
0!
#50
0"
#60
1!
0#
#70
1"
#80
0!
#90
0"
0$
#100
1!
#110
1"
#120
0!
#130
0"
1#
#140
1!
#145
14
#150
1"
#155
b1011 6
#160
0!
#165
1$
#170
0"
07
#180
1!
#190
1"
#200
0!
#205
0#
#210
0"
#220
1!
#230
1"
#235
0$
#240
0!
#250
0"
#260
1!
#270
1"
#275
1#
#280
0!
#290
0"
#300
1!
#305
1$
#310
1"
#320
0!
#330
0"
#340
1!
#345
0#
#350
1"
#360
0!
#365
b01 8
#370
0"
12
b1111 6
#375
0$
#380
1!
#390
1"
#395
17
#400
0!
#410
0"
#415
1#
#420
1!
#430
1"
04
#440
0!
#445
1$
b11 5
#450
0"
1/
10
#460
1!
#465
1%
#470
1"
11
#475
1&
b001 +
0,
b110 3
#480
0!
1.
#485
0#
1,
#490
0"
0'
0/
00
b000 3
1F
#500
1!
b11 8
#510
1"
0.
#515
0$
#520
0!
#530
0"
#540
1!
#550
1"
#555
1#
#560
0!
#570
0"
01
#580
1!
#585
1$
b100 3
19
0F
#590
1"
b000 +
#600
0!
#610
0"
#615
0,
#620
1!
1.
#625
0#
1,
#630
1"
#640
0!
#650
0"
#655
0$
#660
1!
#670
1"
#680
0!
#690
0"
#695
1#
#700
1!
#710
1"
#720
0!
02
b1011 6
#725
1$
#730
0"
0.
#740
1!
#750
1"
#760
0!
#765
0#
#770
0"
#780
1!
#790
1"
#795
0$
#800
0!
#810
0"
#815
07
#820
1!
#830
1"
#835
1#
#840
0!
#850
0"
#855
14
#860
1!
#865
b01 5
#870
1"
1$
#880
0!
#890
0"
#900
1!
#910
1"
0#
#920
0!
#930
0"
#940
1!
0$
#950
1"
#960
0!
#970
0"
#980
1!
1#
#990
1"
#1000
0!
#1010
0"
1$
#1020
1!
#1030
1"
#1040
0!
#1050
0"
0#
#1060
1!
#1070
1"
b01 8
#1075
12
b1111 6
#1080
0!
0$
#1085
1.
#1090
0"
#1100
1!
#1105
17
#1110
1"
#1120
0!
1#
#1130
0"
1/
10
#1135
04
#1140
1!
#1145
11
#1150
1"
1$
#1155
b001 +
b110 3
09
#1160
0!
#1170
0"
b11 5
#1175
b11 8
1F
#1180
1!
#1190
1"
0#
#1200
0!
#1210
0"
b000 3
#1220
1!
0$
#1230
1"
0.
#1240
0!
#1250
0"
#1260
1!
1#
#1270
1"
#1280
0!
#1290
0"
1$
0/
00
#1300
1!
#1310
1"
#1320
0!
#1330
0"
0#
#1340
1!
#1350
1"
#1360
0!
0$
#1370
0"
01
#1380
1!
#1385
b100 3
19
#1390
1"
b000 +
0F
#1400
0!
1#
#1410
0"
#1415
0,
#1420
1!
1.
#1425
1,
02
b1011 6
#1430
1"
1$
#1435
0.
#1440
0!
#1450
0"
#1460
1!
#1470
1"
0#
#1480
0!
#1490
0"
#1500
1!
0$
#1510
1"
#1520
0!
07
#1530
0"
#1540
1!
1#
#1550
1"
#1555
14
#1560
0!
#1570
0"
b01 5
#1575
1$
#1580
1!
#1590
1"
#1600
0!
#1610
0"
#1615
0#
#1620
1!
#1630
1"
#1640
0!
0$
#1650
0"
#1660
1!
#1670
1"
#1680
0!
#1685
1#
#1690
0"
#1700
1!
#1710
1"
#1715
1$
#1720
0!
#1730
0"
#1740
1!
#1750
1"
#1755
0#
#1760
0!
#1770
0"
#1775
b01 8
#1780
1!
12
b1111 6
#1785
0$
#1790
1"
1.
#1800
0!
#1810
0"
17
#1820
1!
#1825
1#
#1830
1"
#1840
0!
04
#1850
0"
1/
10
#1855
1$
#1860
1!
#1865
11
#1870
1"
#1875
b001 +
b110 3
09
#1880
0!
#1890
0"
b11 5
#1895
0#
b11 8
1F
#1900
1!
#1910
1"
#1920
0!
#1925
0$
#1930
0"
b000 3
#1940
1!
#1950
1"
0.
#1960
0!
#1965
1#
#1970
0"
#1980
1!
#1990
1"
#1995
1$
#2000
0!
#2010
0"
0/
00
#2020
1!
#2030
1"
#2035
0#
#2040
0!
#2050
0"
#2060
1!
#2065
0$
#2070
1"
#2080
0!
#2090
0"
01
#2100
1!
#2105
1#
b100 3
19
#2110
1"
b000 +
0F
#2120
0!
#2130
0"
#2135
1$
0,
#2140
1!
1.
#2145
1,
#2150
1"
#2160
0!
#2170
0"
#2175
0#
#2180
1!
#2190
1"
#2200
0!
#2205
0$
#2210
0"
#2220
1!
#2230
1"
#2240
0!
#2245
1#
#2250
0"
#2260
1!
#2270
1"
02
b1011 6
#2280
0!
1$
0.
#2290
0"
#2300
1!
#2310
1"
#2315
0#
#2320
0!
#2330
0"
#2340
1!
#2345
0$
#2350
1"
#2360
0!
#2365
07
#2370
0"
#2380
1!
#2390
1"
1#
#2400
0!
#2405
14
#2410
0"
#2415
b01 5
#2420
1!
1$
#2430
1"
#2440
0!
#2450
0"
#2460
1!
0#
#2470
1"
#2480
0!
#2490
0"
0$
#2500
1!
#2510
1"
#2520
0!
#2530
0"
1#
#2540
1!
#2550
1"
#2560
0!
1$
#2570
0"
#2580
1!
#2590
1"
#2600
0!
0#
#2610
0"
#2620
1!
#2625
12
b1111 6
b01 8
#2630
1"
0$
#2635
1.
#2640
0!
#2650
0"
#2655
17
#2660
1!
#2670
1"
1#
#2680
0!
#2685
04
#2690
0"
1/
10
#2700
1!
1$
#2705
11
#2710
1"
#2715
b001 +
b110 3
09
#2720
0!
#2730
0"
b11 5
#2735
b11 8
1F
#2740
1!
0#
#2750
1"
#2760
0!
#2770
0"
0$
b000 3
#2780
1!
#2790
1"
0.
#2800
0!
#2810
0"
1#
#2820
1!
#2830
1"
#2840
0!
1$
#2850
0"
0/
00
#2860
1!
#2870
1"
#2880
0!
0#
#2890
0"
#2900
1!
#2910
1"
0$
#2920
0!
#2930
0"
01
#2940
1!
#2945
b100 3
19
#2950
1"
1#
b000 +
0F
#2960
0!
#2970
0"
#2975
0,
#2980
1!
1.
#2985
1$
1,
#2990
1"
#3000
0!
#3010
0"
#3020
1!
0#
#3030
1"
#3040
0!
#3050
0"
0$
#3060
1!
#3070
1"
#3080
0!
#3090
0"
1#
#3100
1!
#3110
1"
#3115
02
b1011 6
#3120
0!
#3125
1$
0.
#3130
0"
#3140
1!
#3150
1"
#3160
0!
#3165
0#
#3170
0"
#3180
1!
#3190
1"
#3195
0$
#3200
0!
#3210
0"
07
#3220
1!
#3230
1"
#3235
1#
#3240
0!
#3250
0"
14
#3260
1!
#3265
1$
b01 5
#3270
1"
#3280
0!
#3290
0"
#3300
1!
#3305
0#
#3310
1"
#3320
0!
#3330
0"
#3335
0$
#3340
1!
#3350
1"
#3360
0!
#3370
0"
#3375
1#
#3380
1!
#3390
1"
#3400
0!
#3405
1$
#3410
0"
#3420
1!
#3430
1"
#3440
0!
#3445
0#
#3450
0"
#3460
1!
#3470
1"
12
b1111 6
b01 8
#3475
0$
#3480
0!
1.
#3490
0"
#3500
1!
#3505
17
#3510
1"
#3515
1#
#3520
0!
#3530
0"
1/
10
04
#3540
1!
#3545
1$
11
#3550
1"
#3555
b001 +
b110 3
09
#3560
0!
#3570
0"
b11 5
#3575
b11 8
1F
#3580
1!
#3585
0#
#3590
1"
#3600
0!
#3610
0"
b000 3
#3615
0$
#3620
1!
#3625
b00 (
#3630
1"
b010 )
b0100 *
0.
#3640
0!
b011 +
1.
#3650
0"
#3655
1#
#3660
1!
#3665
b01 (
#3670
1"
0%
b001 )
b0001 *
#3680
0!
0&
b001 +
#3685
0.
#3690
0"
1$
0/
#3695
1'
#3700
1!
#3710
1"
#3720
0!
#3725
0#
#3730
0"
00
#3740
1!
#3750
1"
#3755
0$
#3760
0!
#3770
0"
01
#3780
1!
#3785
b100 3
#3790
1"
b000 +
0F
#3795
1#
#3800
0!
#3810
0"
#3815
0,
#3820
1!
1.
02
#3825
1,
#3830
1"
1$
0.
#3840
0!
b01 5
#3850
0"
#3860
1!
#3870
1"
0#
#3880
0!
#3890
0"
#3900
1!
0$
#3910
1"
#3920
0!
#3930
0"
#3940
1!
1#
#3950
1"
#3955
14
#3960
0!
b1011 6
#3970
0"
1$
#3975
07
#3980
1!
#3990
1"
#4000
0!
#4010
0"
0#
#4020
1!
#4030
1"
#4040
0!
0$
#4050
0"
#4060
1!
#4070
1"
#4080
0!
1#
#4090
0"
#4100
1!
#4110
1"
1$
#4120
0!
#4130
0"
#4140
1!
#4150
1"
0#
#4160
0!
#4170
0"
#4175
12
b1111 6
b01 8
#4180
1!
0$
#4190
1"
#4200
0!
#4210
0"
17
#4220
1!
1#
#4230
1"
#4235
04
#4240
0!
#4250
0"
1$
1/
10
b11 5
#4260
1!
#4265
11
#4270
1"
#4275
b001 +
b110 3
#4280
0!
0,
#4285
1.
#4290
0"
0#
1,
b000 3
1F
#4295
b11 8
#4300
1!
#4310
1"
0.
#4320
0!
0$
#4330
0"
0/
#4340
1!
#4350
1"
#4360
0!
1#
#4370
0"
00
#4380
1!
#4390
1"
#4395
1$
#4400
0!
#4410
0"
01
#4420
1!
#4425
b100 3
0F
#4430
1"
0#
b000 +
#4440
0!
#4450
0"
#4455
0,
#4460
1!
0$
1.
#4465
1,
#4470
1"
#4480
0!
#4490
0"
#4500
1!
1#
#4510
1"
#4520
0!
#4525
02
#4530
0"
#4535
1$
0.
#4540
1!
#4545
b01 5
#4550
1"
#4560
0!
#4570
0"
#4575
0#
#4580
1!
#4590
1"
#4600
0!
#4605
0$
#4610
0"
#4620
1!
#4630
1"
#4640
0!
#4645
1#
#4650
0"
#4660
1!
14
#4665
b1011 6
#4670
1"
#4675
1$
#4680
0!
07
#4690
0"
#4700
1!
#4710
1"
#4715
0#
#4720
0!
#4730
0"
#4740
1!
#4745
0$
#4750
1"
#4760
0!
#4770
0"
#4780
1!
#4785
1#
#4790
1"
#4800
0!
#4810
0"
#4815
1$
#4820
1!
#4830
1"
#4840
0!
#4850
0"
#4855
0#
#4860
1!
#4870
1"
#4880
0!
12
b1111 6
b01 8
#4885
0$
#4890
0"
#4900
1!
#4905
17
#4910
1"
#4920
0!
#4925
1#
#4930
0"
1/
10
#4940
1!
04
#4945
11
#4950
1"
#4955
1$
b001 +
b110 3
b11 5
#4960
0!
#4970
0"
b000 3
1F
#4975
b11 8
#4980
1!
#4990
1"
#4995
0#
#5000
0!
#5010
0"
0/
#5020
1!
#5025
0$
#5030
1"
#5040
0!
#5050
0"
00
#5060
1!
#5065
1#
#5070
1"
#5080
0!
#5090
0"
01
#5095
1$
#5100
1!
#5105
b100 3
0F
#5110
1"
b000 +
#5120
0!
#5130
0"
#5135
0#
0,
#5140
1!
1.
#5145
1,
#5150
1"
#5160
0!
#5165
0$
#5170
0"
#5180
1!
#5190
1"
#5200
0!
#5205
1#
#5210
0"
#5220
1!
#5230
1"
02
#5240
0!
1$
0.
#5250
0"
b01 5
#5260
1!
#5270
1"
#5280
0!
0#
#5290
0"
#5300
1!
#5305
0$
#5310
1"
#5320
0!
#5330
0"
#5340
1!
#5350
1"
1#
#5360
0!
#5365
14
#5370
0"
b1011 6
#5380
1!
1$
#5385
07
#5390
1"
#5400
0!
#5410
0"
#5420
1!
0#
#5430
1"
#5440
0!
#5450
0"
0$
#5460
1!
#5470
1"
#5480
0!
#5490
0"
1#
#5500
1!
#5510
1"
#5520
0!
1$
#5530
0"
#5540
1!
#5550
1"
#5560
0!
0#
#5570
0"
#5580
1!
#5585
12
b1111 6
b01 8
#5590
1"
0$
#5600
0!
#5610
0"
17
#5620
1!
#5630
1"
1#
#5640
0!
#5645
04
#5650
0"
1/
10
#5660
1!
1$
b11 5
#5665
11
#5670
1"
#5675
b001 +
b110 3
#5680
0!
#5690
0"
0,
b000 3
1F
#5695
b11 8
#5700
1!
0#
1.
#5705
1,
#5710
1"
0.
#5720
0!
#5730
0"
0$
0/
#5740
1!
#5750
1"
#5760
0!
#5770
0"
1#
00
#5780
1!
#5790
1"
#5800
0!
1$
#5810
0"
01
#5820
1!
#5825
b100 3
0F
#5830
1"
b000 +
#5840
0!
0#
#5850
0"
#5855
0,
#5860
1!
1.
#5865
1,
#5870
1"
0$
#5880
0!
#5890
0"
#5900
1!
#5910
1"
1#
#5920
0!
#5930
0"
#5935
02
#5940
1!
#5945
1$
0.
#5950
1"
#5955
b01 5
#5960
0!
#5970
0"
#5980
1!
#5985
0#
#5990
1"
#6000
0!
#6010
0"
0$
#6020
1!
#6030
1"
#6040
0!
#6050
0"
#6055
1#
#6060
1!
#6070
1"
14
#6075
b1011 6
#6080
0!
#6085
1$
#6090
0"
07
#6100
1!
#6110
1"
#6120
0!
#6125
0#
#6130
0"
#6140
1!
#6150
1"
#6155
0$
#6160
0!
#6170
0"
#6180
1!
#6190
1"
#6195
1#
#6200
0!
#6210
0"
#6220
1!
#6225
1$
#6230
1"
#6240
0!
#6250
0"
#6260
1!
#6265
0#
#6270
1"
#6280
0!
#6290
0"
12
b1111 6
b01 8
#6295
0$
#6300
1!
#6310
1"
#6315
17
#6320
0!
#6330
0"
#6335
1#
#6340
1!
#6350
1"
04
#6360
0!
#6365
1$
b11 5
#6370
0"
1/
10
#6380
1!
#6385
1%
#6390
1"
11
#6395
1&
b001 +
0,
b110 3
#6400
0!
1.
#6405
0#
1,
#6410
0"
0'
0/
00
b000 3
1F
#6420
1!
b11 8
#6430
1"
0.
#6435
0$
#6440
0!
#6450
0"
#6460
1!
#6470
1"
#6475
1#
#6480
0!
#6490
0"
01
#6500
1!
#6505
1$
b100 3
19
0F
#6510
1"
b000 +
#6520
0!
#6530
0"
#6535
0,
#6540
1!
1.
#6545
0#
1,
#6550
1"
#6560
0!
#6570
0"
#6575
0$
#6580
1!
#6590
1"
#6600
0!
#6610
0"
#6615
1#
#6620
1!
#6630
1"
#6640
0!
02
b1011 6
#6650
0"
1$
0.
#6660
1!
#6670
1"
#6680
0!
#6690
0"
0#
#6700
1!
#6710
1"
#6715
0$
#6720
0!
#6730
0"
#6735
07
#6740
1!
#6750
1"
#6760
0!
1#
#6770
0"
#6775
14
#6780
1!
#6785
b01 5
#6790
1"
1$
