docs/traces/buster-07/z3-multi-read-multi-write.vcd
$version stp-vcd-exporter.py 1.0 $end
$timescale 1 ns $end
$var reg 1 ! CPUCLK $end
$var reg 1 " CLK90 $end
$var reg 1 # C7M $end
$var reg 1 $ CDAC_n $end
$var reg 1 % RW_n $end
$var reg 1 & READ $end
$var reg 1 ' D2P_n $end
$var reg 2 ( SIZ[1..0] $end
$var reg 3 ) MS[2..0] $end
$var reg 4 * A[3..0] $end
$var reg 3 + EA[3..1] $end
$var reg 1 , ADDRZ3_n $end
$var reg 1 - MEMZ2_n $end
$var reg 1 . IOZ2_n $end
$var reg 1 / AS_n $end
$var reg 1 0 DS_n $end
$var reg 1 1 FCS_n $end
$var reg 1 2 CCS_n $end
$var reg 3 3 ABOE_n[2..0] $end
$var reg 1 4 DOE $end
$var reg 2 5 DBOE_n[1..0] $end
$var reg 4 6 EDS_n[3..0] $end
$var reg 1 7 DTACK_n $end
$var reg 2 8 DSACK_n[1..0] $end
$var reg 1 9 DBLT $end
$var reg 1 : RESET_n $end
$var reg 1 ; STERM_n $end
$var reg 1 < SBR_n $end
$var reg 1 = SBG_n $end
$var reg 1 > BR_n $end
$var reg 1 ? BG_n $end
$var reg 1 @ BGACK_n $end
$var reg 1 A BERR_n $end
$var reg 1 B BIGZ_n $end
$var reg 1 C BINT_n $end
$var reg 1 D CBREQ_n $end
$var reg 1 E CBACK_n $end
$var reg 1 F CIIN_n $end
$var reg 1 G CINH_n $end
$var reg 1 H DB16_n $end
$var reg 1 I EBCLR_n $end
$var reg 1 J EBGACK_n $end
$var reg 1 K OWN_n $end
$var reg 1 L RMC_n $end
$var reg 1 M WAIT_n $end
$enddefinitions $end
#0
1!
0"
0#
1$
0%
0&
1'
b00 (
b001 )
b0000 *
b001 +
1,
1-
1.
0/
00
01
12
b110 3
14
b00 5
b0000 6
17
b11 8
09
1:
1;
1<
1=
1>
1?
1@
1A
1B
1C
1D
1E
1F
1G
1H
1I
1J
1K
1L
1M
#10
1"
0$
#20
0!
#30
0"
07
#40
1!
#50
1"
1#
b00 8
#60
0!
#70
0"
#80
1!
#85
1$
#90
1"
#100
0!
#110
0"
1/
10
#120
1!
#125
0#
#130
1"
11
b11 5
#135
b1111 6
#140
0!
04
#145
17
#150
0"
#155
0$
#160
1!
#165
b10 8
#170
1"
1%
b010 )
b1100 *
b11 8
#180
0!
1&
b111 +
#185
07
#190
0"
b010 3
17
#195
1#
0'
b000 3
#200
1!
#210
1"
#220
0!
#225
1$
#230
0"
#240
1!
#250
1"
#260
0!
#265
0#
#270
0"
#280
1!
#290
1"
#295
0$
#300
0!
#310
0"
#320
1!
#330
1"
#335
1#
#340
0!
#350
0"
#360
1!
#365
1$
#370
1"
#380
0!
#390
0"
#400
1!
#405
0#
#410
1"
b001 )
b0000 *
#420
0!
b001 +
0,
#430
0"
0/
00
#435
0$
#440
1!
#450
1"
#460
0!
#470
0"
#475
1#
#480
1!
#490
1"
#500
0!
#505
1$
#510
0"
01
#520
1!
#525
b100 3
#530
1"
b110 3
#540
0!
#545
0#
14
#550
0"
b00 5
#560
1!
#565
1,
#570
1"
b0000 6
#575
0$
#580
0!
#590
0"
#600
1!
#610
1"
#615
1#
#620
0!
#630
0"
07
#640
1!
#650
1"
1$
b00 8
#660
0!
#670
0"
#680
1!
#685
0#
#690
1"
#700
0!
#710
0"
1/
10
#715
0$
#720
1!
#730
1"
11
b11 5
#735
b1111 6
#740
0!
04
#745
17
#750
0"
#755
1#
#760
1!
b10 8
#765
07
b11 8
#770
1"
b0100 *
17
#775
07
#780
0!
b011 +
17
#790
0"
1$
0/
00
b010 3
#795
b000 3
#800
1!
#810
1"
0,
#820
0!
#830
0"
0#
#840
1!
#850
1"
#860
0!
0$
#870
0"
01
#880
1!
#885
b100 3
#890
1"
b110 3
#900
0!
1#
#905
14
#910
0"
b00 5
#920
1!
#925
1,
#930
1"
1$
b0000 6
#940
0!
#950
0"
#960
1!
#970
1"
0#
#980
0!
#990
0"
07
#1000
1!
0$
#1010
1"
b00 8
#1020
0!
#1030
0"
#1040
1!
1#
#1050
1"
#1060
0!
#1070
0"
1$
1/
10
#1080
1!
#1090
1"
11
b11 5
#1095
b1111 6
#1100
0!
04
#1105
17
#1110
0"
0#
#1120
1!
b10 8
#1130
1"
b1000 *
b11 8
#1140
0!
0$
b101 +
#1150
0"
0/
00
b010 3
#1155
b000 3
#1160
1!
#1170
1"
0,
#1180
0!
1#
#1190
0"
#1200
1!
#1210
1"
1$
#1220
0!
#1230
0"
01
#1240
1!
#1245
b100 3
#1250
1"
0#
b110 3
#1260
0!
#1265
14
#1270
0"
b00 5
#1280
1!
0$
#1285
1,
#1290
1"
b0000 6
#1300
0!
#1310
0"
#1320
1!
1#
#1330
1"
#1340
0!
#1350
0"
1$
07
#1360
1!
#1370
1"
b00 8
#1380
0!
#1390
0"
0#
#1400
1!
#1410
1"
#1420
0!
0$
#1430
0"
1/
10
#1440
1!
#1450
1"
11
b11 5
#1455
b1111 6
#1460
0!
1#
04
#1465
17
#1470
0"
07
#1475
17
#1480
1!
b10 8
#1490
1"
b1100 *
b11 8
#1495
1$
#1500
0!
b111 +
#1510
0"
0/
00
b010 3
#1515
b000 3
#1520
1!
#1530
1"
0,
#1535
0#
#1540
0!
#1550
0"
#1560
1!
0$
#1570
1"
#1580
0!
#1590
0"
01
#1600
1!
#1605
1#
b100 3
#1610
1"
b110 3
#1620
0!
#1625
14
#1630
0"
b00 5
#1635
1$
#1640
1!
#1645
1,
#1650
1"
b0000 6
#1660
0!
#1670
0"
#1675
0#
#1680
1!
#1690
1"
#1700
0!
#1705
0$
#1710
0"
07
#1720
1!
#1730
1"
b00 8
#1740
0!
#1745
1#
#1750
0"
#1760
1!
#1770
1"
#1775
1$
#1780
0!
#1790
0"
1/
10
#1800
1!
#1810
1"
11
b11 5
#1815
0#
b1111 6
#1820
0!
04
#1825
17
#1830
0"
#1840
1!
b10 8
#1845
0$
07
b11 8
#1850
1"
17
#1855
07
#1860
0!
17
#1870
0"
b010 3
#1875
b000 3
#1880
1!
#1885
1#
#1890
1"
0,
#1900
0!
#1910
0"
#1915
1$
#1920
1!
#1930
1"
#1940
0!
#1950
0"
#1955
0#
#1960
1!
#1970
1"
b010 )
b0000 *
#1980
0!
b001 +
#1985
0$
1,
#1990
0"
#2000
1!
#2010
1"
#2020
0!
#2025
1#
#2030
0"
#2040
1!
#2050
1"
#2055
1$
#2060
0!
#2070
0"
#2080
1!
#2090
1"
#2095
0#
#2100
0!
#2110
0"
#2120
1!
#2125
0$
#2130
1"
#2140
0!
#2150
0"
#2160
1!
#2165
1#
#2170
1"
#2180
0!
#2190
0"
#2200
1!
1$
#2210
1"
0%
b001 )
b1100 *
#2220
0!
0&
b111 +
0,
#2230
0"
0/
#2235
0#
1'
#2240
1!
#2250
1"
#2260
0!
#2265
0$
#2270
0"
00
#2280
1!
#2290
1"
#2300
0!
#2305
1#
#2310
0"
01
#2320
1!
#2325
b100 3
#2330
1"
b110 3
#2340
0!
1$
#2345
14
#2350
0"
b00 5
#2360
1!
#2365
1,
#2370
1"
b0000 6
#2380
0!
0#
#2390
0"
#2400
1!
#2410
1"
0$
#2420
0!
#2430
0"
07
#2440
1!
#2450
1"
1#
b00 8
#2460
0!
#2470
0"
#2480
1!
1$
#2490
1"
#2500
0!
#2510
0"
1/
10
#2520
1!
0#
#2530
1"
b1000 *
11
b11 5
#2535
b1111 6
#2540
0!
b101 +
04
#2545
17
#2550
0"
0$
0/
#2560
1!
b10 8
#2570
1"
b11 8
#2580
0!
#2590
0"
1#
00
b010 3
#2595
b000 3
#2600
1!
#2610
1"
0,
#2620
0!
1$
#2630
0"
#2640
1!
#2650
1"
#2660
0!
0#
#2670
0"
01
#2680
1!
#2685
b100 3
#2690
1"
0$
b110 3
#2700
0!
#2705
14
#2710
0"
b00 5
#2720
1!
#2725
1,
#2730
1"
1#
b0000 6
#2740
0!
#2750
0"
#2760
1!
1$
#2770
1"
#2780
0!
#2790
0"
07
#2800
1!
0#
#2810
1"
b00 8
#2820
0!
#2830
0"
0$
#2840
1!
#2850
1"
#2860
0!
#2870
0"
1#
1/
10
#2880
1!
#2890
1"
b0100 *
11
b11 5
#2895
b1111 6
#2900
0!
b011 +
04
#2905
1$
17
#2910
0"
0/
07
#2915
17
#2920
1!
b10 8
#2930
1"
b11 8
#2940
0!
#2945
0#
#2950
0"
00
b010 3
#2955
b000 3
#2960
1!
#2970
1"
0$
0,
#2980
0!
#2990
0"
#3000
1!
#3010
1"
1#
#3020
0!
#3030
0"
01
#3040
1!
#3045
1$
b100 3
#3050
1"
b110 3
#3060
0!
#3065
14
#3070
0"
b00 5
#3080
1!
#3085
0#
1,
#3090
1"
b0000 6
#3100
0!
#3110
0"
#3115
0$
#3120
1!
#3130
1"
#3140
0!
#3150
0"
07
#3155
1#
#3160
1!
#3170
1"
b00 8
#3180
0!
#3185
1$
#3190
0"
#3200
1!
#3210
1"
#3220
0!
#3225
0#
#3230
0"
1/
10
#3240
1!
#3250
1"
b0000 *
11
b11 5
#3255
0$
b1111 6
#3260
0!
b001 +
04
#3265
17
#3270
0"
0/
#3280
1!
b10 8
#3290
1"
b11 8
#3295
1#
#3300
0!
#3310
0"
00
b010 3
#3315
b000 3
#3320
1!
#3325
1$
#3330
1"
0,
#3340
0!
#3350
0"
#3360
1!
#3365
0#
#3370
1"
#3380
0!
#3390
0"
01
#3395
0$
#3400
1!
#3405
b100 3
#3410
1"
b110 3
#3420
0!
#3425
14
#3430
0"
b00 5
#3435
1#
#3440
1!
#3445
1,
#3450
1"
b0000 6
#3460
0!
#3465
1$
#3470
0"
#3480
1!
#3490
1"
#3500
0!
#3505
0#
#3510
0"
07
#3520
1!
#3530
1"
b00 8
#3535
0$
#3540
0!
#3550
0"
#3560
1!
#3570
1"
#3575
1#
#3580
0!
#3590
0"
1/
10
#3600
1!
#3610
1"
1$
11
b11 5
#3615
b1111 6
#3620
0!
04
#3625
17
#3630
0"
07
#3635
17
#3640
1!
b10 8
#3645
0#
b11 8
#3650
1"
#3660
0!
#3670
0"
b010 3
#3675
0$
b000 3
#3680
1!
#3690
1"
0,
#3700
0!
#3710
0"
#3720
1!
1#
#3730
1"
#3740
0!
#3750
0"
1$
#3760
1!
#3770
1"
1%
#3780
0!
1&
#3790
0"
0#
0/
00
#3795
0'
#3800
1!
#3810
1"
#3820
0!
0$
#3830
0"
#3840
1!
#3850
1"
#3860
0!
1#
#3870
0"
01
#3880
1!
#3885
b100 3
#3890
1"
1$
b110 3
#3900
0!
#3905
14
#3910
0"
b00 5
#3920
1!
#3925
1,
#3930
1"
0#
b0000 6
#3940
0!
#3950
0"
#3960
1!
0$
#3970
1"
#3980
0!
#3990
0"
07
#4000
1!
1#
#4010
1"
b00 8
#4020
0!
#4030
0"
1$
#4040
1!
#4050
1"
#4060
0!
#4070
0"
0#
1/
10
#4080
1!
#4090
1"
11
b11 5
#4095
b1111 6
#4100
0!
0$
04
#4105
17
#4110
0"
#4120
1!
b10 8
#4125
07
b11 8
#4130
1"
b0100 *
17
#4140
0!
1#
b011 +
#4150
0"
0/
00
b010 3
#4155
b000 3
#4160
1!
#4170
1"
1$
0,
